1;2;Frank Darabont
2;1;Francis Ford Coppola
3;1;Quentin Tarantino
4;4;Sergio Leone
5;1;Sidney Lumet
6;6;Christopher Nolan
7;1;Steven Spielberg
8;7;Peter Jackson
9;1;David Fincher
10;1;Irvin Kershner
11;8;Milos Forman
12;1;Martin Scorsese
13;1;George Lucas
14;10;Akira Kurosawa
15;1;Robert Zemeckis
16;1;Andy Wachowski
17;1;Lana Wachowski