1;English
2;English
2;Italian
2;Latin 
3;English
3;Italian
3;Latin
3;Spanish
3;Sicilian
4;English
4;Spanish
4;French
5;Italian
6;English
7;English
7;Mandarin
8;English
8;Hebrew
8;German
8;Polish
9;English
9;Quenya
9;Old English
9;Sindarin
10;English
11;English
12;English
12;Sindarin
13;English
14;English
14;Japanese
14;French
15;English
15;Italian
16;English
17;Japanese
18;English
19;English
20;English
20;Sindarin
20;Old English