1;1;Tim Robbins
2;1;Morgan Freeman
3;1;Bob Gunton
4;1;Marlon Brando
5;1;Al Pacino
6;1;James Caan
7;1;Robert Duvall
8;1;Diane Keaton
9;1;John Travolta
10;1;Samuel L. Jackson
11;3;Bruce Willis
12;1;Eli Wallach
13;1;Clint Eastwood
14;1;Lee Van Cleef
15;1;Martin Balsam
16;1;John Fieldler
17;1;Lee J. Cobb
18;6;Christian Bale
19;1;Heath Ledger
20;1;Aaron Eckhart
21;6;Liam Neeson
22;6;Ben Kingsley
23;6;Ralph Fiennes
24;6;Orlando Bloom
25;6;Ian McKellen
26;1;Viggo Mortensen
27;1;Edward Norton
28;1;Brad Pitt
29;6;Helena Bonham Carter
30;1;Mark Hamill
31;1;Harrison Ford
32;1;Carrie Fisher
33;1;Elijah Wood
34;6;Sean Bean
35;1;Michael Berryman
36;1;Peter Brocco
37;1;Louise Fletcher
38;1;Leonardo DiCaprio
39;1;Joseph Gordon-Levitt
40;9;Ellen Page
41;1;Robert De Niro
42;1;Ray Liotta
43;1;Joe Pesci
44;10;Toshiro Mifune
45;10;Takashi Shimura
46;10;Keiko Tsushima
47;1;Tom Hanks
48;1;Sally Field
49;1;Robin Wright
50;12;Keanu Reeves
51;1;Laurence Fishburne
52;9;Carrie-Anne Moss